1	-8.777691	2.728314	-1.842798	MEG0111
2	-8.777691	2.728314	-1.842798	MEG0112
3	-8.777691	2.728314	-1.842798	MEG0113
4	-8.968380	5.035582	1.280259	MEG0121
5	-8.968380	5.035582	1.280259	MEG0122
6	-8.968380	5.035582	1.280259	MEG0123
7	-9.796937	1.799824	1.648381	MEG0131
8	-9.796937	1.799824	1.648381	MEG0132
9	-9.796937	1.799824	1.648381	MEG0133
10	-9.268844	-0.579026	-1.519467	MEG0141
11	-9.268844	-0.579026	-1.519467	MEG0142
12	-9.268844	-0.579026	-1.519467	MEG0143
13	-10.417050	2.737501	4.935610	MEG0211
14	-10.417050	2.737501	4.935610	MEG0212
15	-10.417050	2.737501	4.935610	MEG0213
16	-10.256875	4.096072	8.183715	MEG0221
17	-10.256875	4.096072	8.183715	MEG0222
18	-10.256875	4.096072	8.183715	MEG0223
19	-10.696435	0.565334	8.752003	MEG0231
20	-10.696435	0.565334	8.752003	MEG0232
21	-10.696435	0.565334	8.752003	MEG0233
22	-10.708618	-0.617199	5.459849	MEG0241
23	-10.708618	-0.617199	5.459849	MEG0242
24	-10.708618	-0.617199	5.459849	MEG0243
25	-7.927315	9.181338	4.288300	MEG0311
26	-7.927315	9.181338	4.288300	MEG0312
27	-7.927315	9.181338	4.288300	MEG0313
28	-9.026749	7.547903	7.747231	MEG0321
29	-9.026749	7.547903	7.747231	MEG0322
30	-9.026749	7.547903	7.747231	MEG0323
31	-7.855807	8.091016	10.991089	MEG0331
32	-7.855807	8.091016	10.991089	MEG0332
33	-7.855807	8.091016	10.991089	MEG0333
34	-9.509804	5.964593	4.493246	MEG0341
35	-9.509804	5.964593	4.493246	MEG0342
36	-9.509804	5.964593	4.493246	MEG0343
37	-9.144595	4.752467	11.517459	MEG0411
38	-9.144595	4.752467	11.517459	MEG0412
39	-9.144595	4.752467	11.517459	MEG0413
40	-6.894170	5.073266	14.389956	MEG0421
41	-6.894170	5.073266	14.389956	MEG0422
42	-6.894170	5.073266	14.389956	MEG0423
43	-7.266023	1.701180	15.171283	MEG0431
44	-7.266023	1.701180	15.171283	MEG0432
45	-7.266023	1.701180	15.171283	MEG0433
46	-9.597058	1.325462	12.197668	MEG0441
47	-9.597058	1.325462	12.197668	MEG0442
48	-9.597058	1.325462	12.197668	MEG0443
49	-5.661451	11.837147	4.739983	MEG0511
50	-5.661451	11.837147	4.739983	MEG0512
51	-5.661451	11.837147	4.739983	MEG0513
52	-2.668354	13.248249	5.524278	MEG0521
53	-2.668354	13.248249	5.524278	MEG0522
54	-2.668354	13.248249	5.524278	MEG0523
55	-3.468410	12.648451	8.724344	MEG0531
56	-3.468410	12.648451	8.724344	MEG0532
57	-3.468410	12.648451	8.724344	MEG0533
58	-6.775354	10.822489	7.911229	MEG0541
59	-6.775354	10.822489	7.911229	MEG0542
60	-6.775354	10.822489	7.911229	MEG0543
61	-4.394380	10.948783	11.640055	MEG0611
62	-4.394380	10.948783	11.640055	MEG0612
63	-4.394380	10.948783	11.640055	MEG0613
64	-1.535550	8.607497	15.033618	MEG0621
65	-1.535550	8.607497	15.033618	MEG0622
66	-1.535550	8.607497	15.033618	MEG0623
67	-3.768941	5.546200	16.160072	MEG0631
68	-3.768941	5.546200	16.160072	MEG0632
69	-3.768941	5.546200	16.160072	MEG0633
70	-5.057107	8.388700	13.813899	MEG0641
71	-5.057107	8.388700	13.813899	MEG0642
72	-5.057107	8.388700	13.813899	MEG0643
73	-4.070224	2.320367	17.094912	MEG0711
74	-4.070224	2.320367	17.094912	MEG0712
75	-4.070224	2.320367	17.094912	MEG0713
76	-0.446275	2.236431	17.927135	MEG0721
77	-0.446275	2.236431	17.927135	MEG0722
78	-0.446275	2.236431	17.927135	MEG0723
79	-0.588660	-1.158095	18.199204	MEG0731
80	-0.588660	-1.158095	18.199204	MEG0732
81	-0.588660	-1.158095	18.199204	MEG0733
82	-4.211845	-1.114108	17.364971	MEG0741
83	-4.211845	-1.114108	17.364971	MEG0742
84	-4.211845	-1.114108	17.364971	MEG0743
85	0.587660	13.669055	6.308045	MEG0811
86	0.587660	13.669055	6.308045	MEG0812
87	0.587660	13.669055	6.308045	MEG0813
88	-0.172222	13.012897	9.549293	MEG0821
89	-0.172222	13.012897	9.549293	MEG0822
90	-0.172222	13.012897	9.549293	MEG0823
91	3.809746	13.094365	7.002813	MEG0911
92	3.809746	13.094365	7.002813	MEG0912
93	3.809746	13.094365	7.002813	MEG0913
94	6.799067	11.532360	7.594093	MEG0921
95	6.799067	11.532360	7.594093	MEG0922
96	6.799067	11.532360	7.594093	MEG0923
97	6.347524	10.506141	10.937917	MEG0931
98	6.347524	10.506141	10.937917	MEG0932
99	6.347524	10.506141	10.937917	MEG0933
100	3.121260	12.485810	10.250246	MEG0941
101	3.121260	12.485810	10.250246	MEG0942
102	3.121260	12.485810	10.250246	MEG0943
103	-0.904335	11.350016	12.563446	MEG1011
104	-0.904335	11.350016	12.563446	MEG1012
105	-0.904335	11.350016	12.563446	MEG1013
106	2.598654	10.784770	13.246474	MEG1021
107	2.598654	10.784770	13.246474	MEG1022
108	2.598654	10.784770	13.246474	MEG1023
109	2.129564	8.212017	15.476904	MEG1031
110	2.129564	8.212017	15.476904	MEG1032
111	2.129564	8.212017	15.476904	MEG1033
112	-0.172130	5.480157	16.972011	MEG1041
113	-0.172130	5.480157	16.972011	MEG1042
114	-0.172130	5.480157	16.972011	MEG1043
115	3.372590	4.834140	16.758432	MEG1111
116	3.372590	4.834140	16.758432	MEG1112
117	3.372590	4.834140	16.758432	MEG1113
118	6.653009	4.384773	15.156265	MEG1121
119	6.653009	4.384773	15.156265	MEG1122
120	6.653009	4.384773	15.156265	MEG1123
121	6.592604	0.936869	15.918404	MEG1131
122	6.592604	0.936869	15.918404	MEG1132
123	6.592604	0.936869	15.918404	MEG1133
124	3.207927	1.486729	17.581329	MEG1141
125	3.207927	1.486729	17.581329	MEG1142
126	3.207927	1.486729	17.581329	MEG1143
127	8.912437	8.765026	8.150816	MEG1211
128	8.912437	8.765026	8.150816	MEG1212
129	8.912437	8.765026	8.150816	MEG1213
130	10.089986	5.517070	9.003456	MEG1221
131	10.089986	5.517070	9.003456	MEG1222
132	10.089986	5.517070	9.003456	MEG1223
133	8.308753	7.141054	11.729484	MEG1231
134	8.308753	7.141054	11.729484	MEG1232
135	8.308753	7.141054	11.729484	MEG1233
136	5.830998	7.774943	14.155604	MEG1241
137	5.830998	7.774943	14.155604	MEG1242
138	5.830998	7.774943	14.155604	MEG1243
139	9.070812	3.652355	12.621485	MEG1311
140	9.070812	3.652355	12.621485	MEG1312
141	9.070812	3.652355	12.621485	MEG1313
142	10.567991	2.247820	9.766382	MEG1321
143	10.567991	2.247820	9.766382	MEG1322
144	10.567991	2.247820	9.766382	MEG1323
145	10.460843	-1.119057	10.291945	MEG1331
146	10.460843	-1.119057	10.291945	MEG1332
147	10.460843	-1.119057	10.291945	MEG1333
148	9.045939	0.105836	13.307179	MEG1341
149	9.045939	0.105836	13.307179	MEG1342
150	9.045939	0.105836	13.307179	MEG1343
151	10.972876	4.550974	5.822386	MEG1411
152	10.972876	4.550974	5.822386	MEG1412
153	10.972876	4.550974	5.822386	MEG1413
154	12.038003	2.296016	2.969186	MEG1421
155	12.038003	2.296016	2.969186	MEG1422
156	12.038003	2.296016	2.969186	MEG1423
157	12.185524	-1.073677	3.459145	MEG1431
158	12.185524	-1.073677	3.459145	MEG1432
159	12.185524	-1.073677	3.459145	MEG1433
160	11.376160	1.301282	6.554361	MEG1441
161	11.376160	1.301282	6.554361	MEG1442
162	11.376160	1.301282	6.554361	MEG1443
163	-10.006528	-1.514834	2.088122	MEG1511
164	-10.006528	-1.514834	2.088122	MEG1512
165	-10.006528	-1.514834	2.088122	MEG1513
166	-9.534771	-4.749247	2.884275	MEG1521
167	-9.534771	-4.749247	2.884275	MEG1522
168	-9.534771	-4.749247	2.884275	MEG1523
169	-8.262242	-7.041960	0.065088	MEG1531
170	-8.262242	-7.041960	0.065088	MEG1532
171	-8.262242	-7.041960	0.065088	MEG1533
172	-9.191133	-3.883252	-0.808003	MEG1541
173	-9.191133	-3.883252	-0.808003	MEG1542
174	-9.191133	-3.883252	-0.808003	MEG1543
175	-10.247115	-3.885023	6.072787	MEG1611
176	-10.247115	-3.885023	6.072787	MEG1612
177	-10.247115	-3.885023	6.072787	MEG1613
178	-10.314764	-2.940683	9.373706	MEG1621
179	-10.314764	-2.940683	9.373706	MEG1622
180	-10.314764	-2.940683	9.373706	MEG1623
181	-8.861287	-6.119254	10.379803	MEG1631
182	-8.861287	-6.119254	10.379803	MEG1632
183	-8.861287	-6.119254	10.379803	MEG1633
184	-8.967888	-6.879897	6.960448	MEG1641
185	-8.967888	-6.879897	6.960448	MEG1642
186	-8.967888	-6.879897	6.960448	MEG1643
187	-6.560966	-9.765539	1.023458	MEG1711
188	-6.560966	-9.765539	1.023458	MEG1712
189	-6.560966	-9.765539	1.023458	MEG1713
190	-8.206087	-7.735238	3.781030	MEG1721
191	-8.206087	-7.735238	3.781030	MEG1722
192	-8.206087	-7.735238	3.781030	MEG1723
193	-6.137486	-10.189223	4.787548	MEG1731
194	-6.137486	-10.189223	4.787548	MEG1732
195	-6.137486	-10.189223	4.787548	MEG1733
196	-4.061222	-11.765281	1.993322	MEG1741
197	-4.061222	-11.765281	1.993322	MEG1742
198	-4.061222	-11.765281	1.993322	MEG1743
199	-9.337531	-2.175909	12.633757	MEG1811
200	-9.337531	-2.175909	12.633757	MEG1812
201	-9.337531	-2.175909	12.633757	MEG1813
202	-7.211140	-1.686679	15.433599	MEG1821
203	-7.211140	-1.686679	15.433599	MEG1822
204	-7.211140	-1.686679	15.433599	MEG1823
205	-4.082474	-4.378413	16.644264	MEG1831
206	-4.082474	-4.378413	16.644264	MEG1832
207	-4.082474	-4.378413	16.644264	MEG1833
208	-7.297641	-5.550994	13.896035	MEG1841
209	-7.297641	-5.550994	13.896035	MEG1842
210	-7.297641	-5.550994	13.896035	MEG1843
211	-6.400561	-8.467297	11.443492	MEG1911
212	-6.400561	-8.467297	11.443492	MEG1912
213	-6.400561	-8.467297	11.443492	MEG1913
214	-4.051836	-10.852480	8.950975	MEG1921
215	-4.051836	-10.852480	8.950975	MEG1922
216	-4.051836	-10.852480	8.950975	MEG1923
217	-3.292267	-11.693955	5.734840	MEG1931
218	-3.292267	-11.693955	5.734840	MEG1932
219	-3.292267	-11.693955	5.734840	MEG1933
220	-6.891408	-9.322136	7.978315	MEG1941
221	-6.891408	-9.322136	7.978315	MEG1942
222	-6.891408	-9.322136	7.978315	MEG1943
223	-3.797964	-7.379604	14.877984	MEG2011
224	-3.797964	-7.379604	14.877984	MEG2012
225	-3.797964	-7.379604	14.877984	MEG2013
226	-0.163557	-7.476500	15.704696	MEG2021
227	-0.163557	-7.476500	15.704696	MEG2022
228	-0.163557	-7.476500	15.704696	MEG2023
229	0.188771	-9.714481	13.180817	MEG2031
230	0.188771	-9.714481	13.180817	MEG2032
231	0.188771	-9.714481	13.180817	MEG2033
232	-3.122597	-9.636744	12.420239	MEG2041
233	-3.122597	-9.636744	12.420239	MEG2042
234	-3.122597	-9.636744	12.420239	MEG2043
235	-0.831360	-11.434359	9.878005	MEG2111
236	-0.831360	-11.434359	9.878005	MEG2112
237	-0.831360	-11.434359	9.878005	MEG2113
238	-0.100809	-12.304646	6.608085	MEG2121
239	-0.100809	-12.304646	6.608085	MEG2122
240	-0.100809	-12.304646	6.608085	MEG2123
241	2.302971	-12.933274	3.694105	MEG2131
242	2.302971	-12.933274	3.694105	MEG2132
243	2.302971	-12.933274	3.694105	MEG2133
244	-1.027625	-12.856771	2.919055	MEG2141
245	-1.027625	-12.856771	2.919055	MEG2142
246	-1.027625	-12.856771	2.919055	MEG2143
247	2.901454	-1.912492	17.764713	MEG2211
248	2.901454	-1.912492	17.764713	MEG2212
249	2.901454	-1.912492	17.764713	MEG2213
250	6.020953	-2.502205	16.176181	MEG2221
251	6.020953	-2.502205	16.176181	MEG2222
252	6.020953	-2.502205	16.176181	MEG2223
253	3.500834	-5.816115	16.368170	MEG2231
254	3.500834	-5.816115	16.368170	MEG2232
255	3.500834	-5.816115	16.368170	MEG2233
256	-0.535350	-4.463714	17.448990	MEG2241
257	-0.535350	-4.463714	17.448990	MEG2242
258	-0.535350	-4.463714	17.448990	MEG2243
259	3.622601	-8.702580	13.745834	MEG2311
260	3.622601	-8.702580	13.745834	MEG2312
261	3.622601	-8.702580	13.745834	MEG2313
262	5.542353	-9.610395	10.854248	MEG2321
263	5.542353	-9.610395	10.854248	MEG2322
264	5.542353	-9.610395	10.854248	MEG2323
265	3.163805	-11.843373	7.227923	MEG2331
266	3.163805	-11.843373	7.227923	MEG2332
267	3.163805	-11.843373	7.227923	MEG2333
268	2.471480	-11.013325	10.460886	MEG2341
269	2.471480	-11.013325	10.460886	MEG2342
270	2.471480	-11.013325	10.460886	MEG2343
271	8.288749	-3.355661	13.653161	MEG2411
272	8.288749	-3.355661	13.653161	MEG2412
273	8.288749	-3.355661	13.653161	MEG2413
274	9.622922	-4.337301	10.655240	MEG2421
275	9.622922	-4.337301	10.655240	MEG2422
276	9.622922	-4.337301	10.655240	MEG2423
277	7.954825	-7.265017	10.855707	MEG2431
278	7.954825	-7.265017	10.855707	MEG2432
279	7.954825	-7.265017	10.855707	MEG2433
280	6.402018	-6.487308	13.888015	MEG2441
281	6.402018	-6.487308	13.888015	MEG2442
282	6.402018	-6.487308	13.888015	MEG2443
283	6.188194	-10.484378	7.641094	MEG2511
284	6.188194	-10.484378	7.641094	MEG2512
285	6.188194	-10.484378	7.641094	MEG2513
286	8.615382	-8.135566	7.667275	MEG2521
287	8.615382	-8.135566	7.667275	MEG2522
288	8.615382	-8.135566	7.667275	MEG2523
289	8.239990	-10.121997	4.435737	MEG2531
290	8.239990	-10.121997	4.435737	MEG2532
291	8.239990	-10.121997	4.435737	MEG2533
292	5.483735	-11.989977	4.186082	MEG2541
293	5.483735	-11.989977	4.186082	MEG2542
294	5.483735	-11.989977	4.186082	MEG2543
295	11.234858	-2.014975	7.009716	MEG2611
296	11.234858	-2.014975	7.009716	MEG2612
297	11.234858	-2.014975	7.009716	MEG2613
298	11.669053	-4.376337	4.026064	MEG2621
299	11.669053	-4.376337	4.026064	MEG2622
300	11.669053	-4.376337	4.026064	MEG2623
301	10.315091	-7.473283	4.362938	MEG2631
302	10.315091	-7.473283	4.362938	MEG2632
303	10.315091	-7.473283	4.362938	MEG2633
304	10.331506	-5.219079	7.479918	MEG2641
305	10.331506	-5.219079	7.479918	MEG2642
306	10.331506	-5.219079	7.479918	MEG2643